{
  "post1": {
    "username": "filipe",
    "location": "Campina Grande",
    "photoURL": "",
    "likes": 100,
    "comments": [
      { "username": "paulog", "comment": "Lindo" },
      { "username": "rodrigo", "comment": "Patrão" },
      { "username": "paulog", "comment": "Lindo!!" },
      { "username": "paulog", "comment": "Lindo!" }
    ]
  },
  "post2": {
    "username": "filipe",
    "location": "Campina Grande",
    "photoURL": "",
    "likes": 98,
    "comments": [
      { "username": "paulog", "comment": "Lindo" },
      { "username": "rodrigo", "comment": "Patrão" },
      { "username": "paulog", "comment": "Lindo!!" },
      { "username": "paulog", "comment": "Lindo!" }
    ]
  },
  "post3": {
    "username": "filipe",
    "location": "Campina Grande",
    "photoURL": "",
    "likes": 256,
    "comments": [
      { "username": "paulog", "comment": "Lindo" },
      { "username": "rodrigo", "comment": "Patrão" },
      { "username": "paulog", "comment": "Lindo!!" },
      { "username": "paulog", "comment": "Lindo!" }
    ]
  },
  "post4": {
    "username": "filipe",
    "location": "Campina Grande",
    "photoURL": "",
    "likes": 2000,
    "comments": [
      { "username": "paulog", "comment": "Lindo" },
      { "username": "rodrigo", "comment": "Patrão" },
      { "username": "paulog", "comment": "Lindo!!" },
      { "username": "paulog", "comment": "Lindo!" }
    ]
  },
  "post5": {
    "username": "filipe",
    "location": "Campina Grande",
    "photoURL": "",
    "likes": 100,
    "comments": [
      { "username": "paulog", "comment": "Lindo" },
      { "username": "rodrigo", "comment": "Patrão" },
      { "username": "paulog", "comment": "Lindo!!" },
      { "username": "paulog", "comment": "Lindo!" }
    ]
  }
}
